{
  "development": {
    "username": "postgres",
    "password": "Annisa123",
    "database": "challenge_3",
    "host": "localhost",
    "dialect": "postgres"
  },
  "test": {
    "username": "postgres",
    "password": "Annisa123",
    "database": "challenge_3",
    "host": "localhost",
    "dialect": "postgres"
  },
  "production": {
    "username": "postgres",
    "password": "Annisa123",
    "database": "challenge_3",
    "host": "localhost",
    "dialect": "postgres"
  }
}
